{
  "@context": "http://clowder.ncsa.illinois.edu/contexts/extractors.jsonld",
  "name": "ncsa.msc.diagnosis",
  "version": "1.0",
  "description": "Analysis micrograph of kidney to detect glomerulus, interstitial inflammation and tubular casts",
  "author": "Yan Zhao <yanzhao3@illinois.edu>",
  "contributors": [],
  "contexts": [],
  "repository": [
    {
      "repType": "git",
      "repUrl": "https://opensource.ncsa.illinois.edu/bitbucket/scm/cats/extractors-msc.git"
    },
    {
      "repType": "docker",
      "repUrl": "clowder/extractors-msc-kidney"
    }
  ],
  "external_services": [],
  "dependencies": ["subprocess"],
  "bibtex": []
}
